student
…
The results of missing values are unexpected: although we already knew that there would be missing responses for q57-q65 due to the grade restriction (as explained in the data description section), we found that q1-q56 have a consistent percentage of missing responses, indicating that there might be schools that didn’t submit their responses for all questions. Therefore, we will be examining schools that missed all responses in the next step:

schools_na <- student_clean |>
  group_by(school_name) |>
  filter(all(is.na(net_pos))) |>
  ungroup() |>
  distinct(school_name)

schools_na

# A tibble: 46 × 1
   school_name                                             
   <chr>                                                   
 1 Cascades High School                                    
 2 High School of Hospitality Management                   
 3 Independence High School                                
 4 Harvey Milk High School                                 
 5 High School for Law, Advocacy and Community Justice     
 6 The Lexington Academy                                   
 7 The Judith S. Kaye School                               
 8 Teachers College Community School                       
 9 Thurgood Marshall Academy for Learning and Social Change
10 P.S. X037 - Multiple Intelligence School                
# ℹ 36 more rows
…
